Separate Times into Date, Hour, and Minute — acti_separate_time • actibase
…
    Arguments

data
a `data.frame` with a `time` column

    Value

    A `data.frame` with date, hour, minute, and day columns

    Examples

library(actibase)
acti_separate_time(acti_raw_data)
#> # A tibble: 240,500 × 8
#>    time                        X      Y     Z date       hour   minute   day
#>    <dttm>                  <dbl>  <dbl> <dbl> <date>     <time> <time> <dbl>
#>  1 2019-09-17 18:40:00.000 0      0.008 0.996 2019-09-17 18:00  18:40      1
#>  2 2019-09-17 18:40:00.009 0.016  0     1.01  2019-09-17 18:00  18:40      1
#>  3 2019-09-17 18:40:00.019 0.02  -0.008 1.00  2019-09-17 18:00  18:40      1
#>  4 2019-09-17 18:40:00.029 0.016 -0.012 1.01  2019-09-17 18:00  18:40      1
#>  5 2019-09-17 18:40:00.039 0.016 -0.008 1.01  2019-09-17 18:00  18:40      1
#>  6 2019-09-17 18:40:00.049 0.008 -0.008 1.01  2019-09-17 18:00  18:40      1
#>  7 2019-09-17 18:40:00.059 0.016 -0.008 1.02  2019-09-17 18:00  18:40      1
#>  8 2019-09-17 18:40:00.069 0.02  -0.004 1.02  2019-09-17 18:00  18:40      1
#>  9 2019-09-17 18:40:00.079 0.016  0     1.01  2019-09-17 18:00  18:40      1
#> 10 2019-09-17 18:40:00.089 0.012  0     1.02  2019-09-17 18:00  18:40      1
#> # ℹ 240,490 more rows
…
