…
## Arguments

- data:

  a data frame containing columns time, X, Y, Z

## Value

the modified data frame with zeros replaced by NA

## Examples

``` r
acti_fill_zeros(acti_raw_data)
#> # A tibble: 240,500 × 4
#>    time                    X      Y     Z
#>    <dttm>              <dbl>  <dbl> <dbl>
#>  1 2019-09-17 18:40:00 0      0.008 0.996
#>  2 2019-09-17 18:40:00 0.016  0     1.01 
#>  3 2019-09-17 18:40:00 0.02  -0.008 1.00 
#>  4 2019-09-17 18:40:00 0.016 -0.012 1.01 
#>  5 2019-09-17 18:40:00 0.016 -0.008 1.01 
#>  6 2019-09-17 18:40:00 0.008 -0.008 1.01 
#>  7 2019-09-17 18:40:00 0.016 -0.008 1.02 
#>  8 2019-09-17 18:40:00 0.02  -0.004 1.02 
#>  9 2019-09-17 18:40:00 0.016  0     1.01 
#> 10 2019-09-17 18:40:00 0.012  0     1.02 
#> # ℹ 240,490 more rows
acti_fill_zeroes(acti_raw_data)
#> # A tibble: 240,500 × 4
#>    time                    X      Y     Z
#>    <dttm>              <dbl>  <dbl> <dbl>
#>  1 2019-09-17 18:40:00 0      0.008 0.996
#>  2 2019-09-17 18:40:00 0.016  0     1.01 
#>  3 2019-09-17 18:40:00 0.02  -0.008 1.00 
#>  4 2019-09-17 18:40:00 0.016 -0.012 1.01 
#>  5 2019-09-17 18:40:00 0.016 -0.008 1.01 
#>  6 2019-09-17 18:40:00 0.008 -0.008 1.01 
#>  7 2019-09-17 18:40:00 0.016 -0.008 1.02 
#>  8 2019-09-17 18:40:00 0.02  -0.004 1.02 
#>  9 2019-09-17 18:40:00 0.016  0     1.01 
#> 10 2019-09-17 18:40:00 0.012  0     1.02 
#> # ℹ 240,490 more rows
```
